notam.py                    61 DEBUG    [request] data: None
webdriver.py                71 DEBUG    [WebDriver][request] start
webdriver.py                72 DEBUG    [WebDriver][request] uri: /api/features/
webdriver.py                73 DEBUG    [WebDriver][request] auth: <libs.auth.auth object at 0x7f87b70ad390>
webdriver.py                74 DEBUG    [WebDriver][request] method: GET
webdriver.py                89 DEBUG    [WebDriver][request] headers: {'Authorization': 'Token a3c51b6d911e3cad7c65880b8b994053a07dfd61', 'Content-Type': 'application/json', 'X-Sender': 'tests'}
webdriver.py                90 DEBUG    [WebDriver][request] postdata: None
connectionpool.py          396 DEBUG    https://notamdev.qantor.ru:443 "GET /api/features/ HTTP/1.1" 200 None
webdriver.py               113 DEBUG    [WebDriver][request] status_code: 200
webdriver.py               114 DEBUG    [WebDriver][request] header: {'Server': 'nginx/1.13.10', 'Date': 'Tue, 17 Jul 2018 19:57:49 GMT', 'Content-Type': 'application/json', 'Transfer-Encoding': 'chunked', 'Connection': 'keep-alive', 'Vary': 'Accept', 'Allow': 'GET, HEAD, OPTIONS', 'X-Frame-Options': 'SAMEORIGIN', 'Strict-Transport-Security': 'max-age=25920000;', 'Content-Encoding': 'gzip'}
webdriver.py               115 DEBUG    [WebDriver][request] Content-Type: application/json
notam.py                    63 DEBUG    [request] response code: 200
test_notam.py              143 DEBUG    [test_get_entity_layer_features] response: {"count":26320,"next":"http://notamdev.qantor.ru/api/features/?page=2","previous":null,"results":[{"id":"98a63600-9798-4e55-b6a7-dd97c062a2eb","name":"02","uid":"5a40edf1-f51b-4374-ab0e-46c7793f94bb","codespace":"urn:uuid:","entity_layer":"d0773d48-889f-4bf8-9bc1-a60ab98280b9","type":"feature","starred":false},{"id":"f25006d9-33dd-4735-8553-968031474a44","name":"02","uid":"838a0232-9144-427c-818a-ca9be2fcf5bb","codespace":"urn:uuid:","entity_layer":"d0773d48-889f-4bf8-9bc1-a60ab98280b9","type":"feature","starred":false},{"id":"0c40235a-1514-4804-ac3f-aab991696d46","name":"02","uid":"64f90fd9-57ee-4ad5-85fa-a176d0647d43","codespace":"urn:uuid:","entity_layer":"d0773d48-889f-4bf8-9bc1-a60ab98280b9","type":"feature","starred":false},{"id":"4b4d3d9c-809d-42a8-baff-49241fb431da","name":"02-20","uid":"ef3eea6d-3c4f-4325-b2fe-1dc920a6483e","codespace":"urn:uuid:","entity_layer":"ff358988-fe7f-40ec-81fc-ed45299d4533","type":"feature","starred":false},{"id":"7c5c9ce4-f71c-49b5-911f-70cbd5012594","name":"02-20","uid":"ff81ef70-2e97-4862-b762-c00218d737fb","codespace":"urn:uuid:","entity_layer":"ff358988-fe7f-40ec-81fc-ed45299d4533","type":"feature","starred":false},{"id":"8a49578e-851a-43ea-ab08-abb42f6fb864","name":"02/20","uid":"93510d62-eb4f-4081-bbc5-4cb5a131105b","codespace":"urn:uuid:","entity_layer":"ff358988-fe7f-40ec-81fc-ed45299d4533","type":"feature","starred":false},{"id":"2d47e976-2bac-49f7-8389-d88f103088c4","name":"03","uid":"ce38dcc4-a0f8-4004-9ac8-16f90e200846","codespace":"urn:uuid:","entity_layer":"d0773d48-889f-4bf8-9bc1-a60ab98280b9","type":"feature","starred":false},{"id":"d6e25220-9289-4894-88da-733190eddef7","name":"03-21","uid":"e69ca0e5-47a3-47dc-9a8a-16399f3f930f","codespace":"urn:uuid:","entity_layer":"ff358988-fe7f-40ec-81fc-ed45299d4533","type":"feature","starred":false},{"id":"5c574a21-5af2-4291-b808-939cc378c7ce","name":"04","uid":"0bcc0585-4425-4d6a-87db-b5347c54600a","codespace":"urn:uuid:","entity_layer":"d0773d48-889f-4bf8-9bc1-a60ab98280b9","type":"feature","starred":false},{"id":"2991023b-70f7-4a8b-949b-3713f76451cd","name":"04","uid":"e85e3608-3690-4503-950b-fb45f7cc8c3d","codespace":"urn:uuid:","entity_layer":"d0773d48-889f-4bf8-9bc1-a60ab98280b9","type":"feature","starred":false},{"id":"f8a89a80-623d-4b2c-8d85-19d0cb1f9f77","name":"04","uid":"cd12048f-63d6-46bb-856c-fe66d7f67fc1","codespace":"urn:uuid:","entity_layer":"d0773d48-889f-4bf8-9bc1-a60ab98280b9","type":"feature","starred":false},{"id":"43316d87-da78-462e-bc8b-413c9e4dcd63","name":"04-22","uid":"b2ab00bf-aae4-481b-ac63-2664e8b6010a","codespace":"urn:uuid:","entity_layer":"ff358988-fe7f-40ec-81fc-ed45299d4533","type":"feature","starred":false},{"id":"b5edfb95-0c19-47b8-9575-eaf699300e55","name":"04-22","uid":"285ee8f3-26c2-4123-a4e2-53c6fad3f6b0","codespace":"urn:uuid:","entity_layer":"ff358988-fe7f-40ec-81fc-ed45299d4533","type":"feature","starred":false},{"id":"2d51156c-280f-403d-a7eb-7a9e3ccfcf32","name":"04/22","uid":"d38ff2d7-72c1-4c47-8b10-49a86e14b80f","codespace":"urn:uuid:","entity_layer":"ff358988-fe7f-40ec-81fc-ed45299d4533","type":"feature","starred":false},{"id":"904ebe8e-5332-4f0d-9817-8eb3612f1071","name":"05","uid":"793bf339-8bc7-4f03-af36-610d113b398e","codespace":"urn:uuid:","entity_layer":"d0773d48-889f-4bf8-9bc1-a60ab98280b9","type":"feature","starred":false},{"id":"334a9bd5-c127-4680-81e6-70fa4d221d25","name":"05","uid":"6a433d60-bd26-4e17-9a62-1c8d9d33fb81","codespace":"urn:uuid:","entity_layer":"d0773d48-889f-4bf8-9bc1-a60ab98280b9","type":"feature","starred":false},{"id":"2a7e981e-7ecb-4e9c-9452-d3599152bd97","name":"05","uid":"e9781427-1450-4c0b-8bc4-21b1a5ccfe38","codespace":"urn:uuid:","entity_layer":"d0773d48-889f-4bf8-9bc1-a60ab98280b9","type":"feature","starred":false},{"id":"c701993a-378b-4d84-b16b-04396d5cfa8c","name":"05","uid":"c7f7b99a-a9bc-4ac9-9097-54334d5a9d32","codespace":"urn:uuid:","entity_layer":"d0773d48-889f-4bf8-9bc1-a60ab98280b9","type":"feature","starred":false},{"id":"cf155660-148a-48fa-8daf-5c3f3b1ac1db","name":"05-23","uid":"6816e7e5-c7f9-4b22-8350-6fe7cb92040d","codespace":"urn:uuid:","entity_layer":"ff358988-fe7f-40ec-81fc-ed45299d4533","type":"feature","starred":false},{"id":"cca225fa-7139-45ac-a533-401e813e3403","name":"05-23","uid":"6842bed2-62df-45ae-96b9-764462dbb48e","codespace":"urn:uuid:","entity_layer":"ff358988-fe7f-40ec-81fc-ed45299d4533","type":"feature","starred":false},{"id":"f4229ecf-7189-4539-a458-bfedc938eb0f","name":"05-23","uid":"5770122b-bc26-465f-b76f-8fd770a0d456","codespace":"urn:uuid:","entity_layer":"ff358988-fe7f-40ec-81fc-ed45299d4533","type":"feature","starred":false},{"id":"a7dfe4b5-5726-4495-b5c2-5a050c8d22f8","name":"05-23","uid":"6496642c-d51a-421e-b140-e05124e1e395","codespace":"urn:uuid:","entity_layer":"ff358988-fe7f-40ec-81fc-ed45299d4533","type":"feature","starred":false},{"id":"8da895eb-f364-4189-bde2-ff121a2eb0ae","name":"05L","uid":"7139acf8-1e83-484d-87a1-b3038b4c0a25","codespace":"urn:uuid:","entity_layer":"d0773d48-889f-4bf8-9bc1-a60ab98280b9","type":"feature","starred":false},{"id":"30ea431a-4c25-4b46-a5b8-fa8dd34cbe06","name":"05L-23R","uid":"0057cdb9-a661-49f8-8f6b-5813eb0ffd9e","codespace":"urn:uuid:","entity_layer":"ff358988-fe7f-40ec-81fc-ed45299d4533","type":"feature","starred":false},{"id":"62f472f3-b5fb-4ac1-a77d-20f540ca5e8b","name":"05R","uid":"b8e84970-219d-48ae-ba58-3a757770dfa8","codespace":"urn:uuid:","entity_layer":"d0773d48-889f-4bf8-9bc1-a60ab98280b9","type":"feature","starred":false},{"id":"24afdb8d-2fa4-469f-afb2-ba4e44a8a0cc","name":"05R-23L","uid":"ae562c88-3ee2-410c-b98b-f3b9fac12be4","codespace":"urn:uuid:","entity_layer":"ff358988-fe7f-40ec-81fc-ed45299d4533","type":"feature","starred":false},{"id":"af2e6425-71b4-4bb2-9ca1-037d3a01b859","name":"08","uid":"f6a1ac3d-57a1-4cd0-8b7b-d84741a1a895","codespace":"urn:uuid:","entity_layer":"d0773d48-889f-4bf8-9bc1-a60ab98280b9","type":"feature","starred":false},{"id":"4f72b372-2f29-41c1-82ef-a8955e32675c","name":"08-26","uid":"709eddee-2037-41bd-87cc-48a7eafd820a","codespace":"urn:uuid:","entity_layer":"ff358988-fe7f-40ec-81fc-ed45299d4533","type":"feature","starred":false},{"id":"96a5457d-3839-4181-902b-41bc5eb84a08","name":"09L","uid":"c8455a6b-9319-4bb7-b797-08e644342d64","codespace":"urn:uuid:","entity_layer":"d0773d48-889f-4bf8-9bc1-a60ab98280b9","type":"feature","starred":false},{"id":"6af4d960-7e68-4484-abe8-954e81684189","name":"09L/27R","uid":"9e51668f-bf8a-4f5b-ba6e-27087972b9b8","codespace":"urn:uuid:","entity_layer":"ff358988-fe7f-40ec-81fc-ed45299d4533","type":"feature","starred":false},{"id":"0cde8490-a547-4954-abdd-b95bd2e973b2","name":"09R","uid":"5d6513d4-a62a-49e1-9e26-0b8cbf320daf","codespace":"urn:uuid:","entity_layer":"d0773d48-889f-4bf8-9bc1-a60ab98280b9","type":"feature","starred":false},{"id":"4d336fef-5593-4ce7-add7-4faaed2aa236","name":"09R/27L","uid":"4428d037-1cdf-433a-9bfa-d0857aaf448a","codespace":"urn:uuid:","entity_layer":"ff358988-fe7f-40ec-81fc-ed45299d4533","type":"feature","starred":false},{"id":"c0f0f593-4fbd-44ca-8a39-c293d133bbb5","name":"10","uid":"0bf84cb5-2710-4d25-be33-d59ef360e5da","codespace":"urn:uuid:","entity_layer":"d0773d48-889f-4bf8-9bc1-a60ab98280b9","type":"feature","starred":false},{"id":"f520d993-cab1-4f7d-a45d-9ec1488ab824","name":"10.00100","uid":"cd10b35b-98df-456f-835e-7388e122dbcd","codespace":"urn:uuid:","entity_layer":null,"type":"feature","starred":false},{"id":"e4d98953-3ba0-4db9-9f7b-c8cd2b9121e5","name":"10.00400","uid":"1ffbc9bb-e22d-46e9-8d48-370705c572a4","codespace":"urn:uuid:","entity_layer":null,"type":"feature","starred":false},{"id":"de49befb-e610-4973-85da-8c799a077c4a","name":"10.00400","uid":"0539132d-541a-47e5-a33b-7df5b7b84e31","codespace":"urn:uuid:","entity_layer":null,"type":"feature","starred":false},{"id":"af5ecf35-6a04-482f-8121-40d24d12c350","name":"10.00400","uid":"3d96cab4-534b-4967-90db-71c3e778d09e","codespace":"urn:uuid:","entity_layer":null,"type":"feature","starred":false},{"id":"25e3557e-7975-4c4a-9533-01b42c4ea4c9","name":"10.00400","uid":"d0ace6c4-d1fc-44b3-b29a-fa6c159396a2","codespace":"urn:uuid:","entity_layer":null,"type":"feature","starred":false},{"id":"16de7dd4-d747-468f-9b20-ec25c5bcc604","name":"10.00400","uid":"df1b2a1e-8bd9-476d-ac67-1d517fbee09e","codespace":"urn:uuid:","entity_layer":null,"type":"feature","starred":false},{"id":"116171b1-fedd-46d3-8cdb-78056fa41e46","name":"10.00400","uid":"2e9570e9-ec3a-426b-b4e9-7ed839b58996","codespace":"urn:uuid:","entity_layer":null,"type":"feature","starred":false},{"id":"0f6c995c-e4ad-4e27-b225-b55311e8abc6","name":"10.00400","uid":"38ce0d91-504a-4c0e-b84d-6325444b96ed","codespace":"urn:uuid:","entity_layer":null,"type":"feature","starred":false},{"id":"f5a61051-454a-470c-85c3-86b168991636","name":"10.00500","uid":"7c198d83-0d03-46f4-86d6-1fff952afc1b","codespace":"urn:uuid:","entity_layer":null,"type":"feature","starred":false},{"id":"df926b84-3ccd-4e6d-993a-7ba2b182ddfa","name":"10.00500","uid":"d7e57e42-bb1f-4c16-9867-d58b4b182be0","codespace":"urn:uuid:","entity_layer":null,"type":"feature","starred":false},{"id":"cd712569-1445-4682-a2a9-5eecc298f021","name":"10.00500","uid":"b5d69d5b-5a08-44e1-aa41-7bacba4bb2cb","codespace":"urn:uuid:","entity_layer":null,"type":"feature","starred":false},{"id":"9af60922-abc2-4489-8abf-da0d3016d5d0","name":"10.00500","uid":"98296e15-83a2-4333-bc60-71d750202e26","codespace":"urn:uuid:","entity_layer":null,"type":"feature","starred":false},{"id":"6f9de094-a171-4338-ba00-ed9b881f9931","name":"10.00500","uid":"ff81d1d0-3764-4607-b1dd-78ee7bed8d9e","codespace":"urn:uuid:","entity_layer":null,"type":"feature","starred":false},{"id":"67743e46-f9d6-44a1-9a36-275b3541dfb9","name":"10.00500","uid":"5d35e2b2-c8e1-4d20-b35e-a9cc4bee67e4","codespace":"urn:uuid:","entity_layer":null,"type":"feature","starred":false},{"id":"59ac510d-ccfd-4be1-983f-c1f53f56fd4b","name":"10.00700","uid":"07ee01e6-eb8c-45c8-bc77-53950a9bc7fd","codespace":"urn:uuid:","entity_layer":null,"type":"feature","starred":false},{"id":"35d281e3-79cf-466b-b2d1-0566512e818b","name":"10.00700","uid":"972c5e92-fee8-4c8b-8901-ca89202e8a99","codespace":"urn:uuid:","entity_layer":null,"type":"feature","starred":false},{"id":"12ffa204-047f-4316-a059-e1ab5396134c","name":"10.00700","uid":"c6199af2-7896-4909-a158-8a65af6ac552","codespace":"urn:uuid:","entity_layer":null,"type":"feature","starred":false},{"id":"f0005eb9-8fd5-4394-98e9-3636178de434","name":"10.00800","uid":"3b88a2fc-c55d-471a-8fd5-dbda193759cd","codespace":"urn:uuid:","entity_layer":null,"type":"feature","starred":false},{"id":"eef79620-7e75-416c-8f78-1ecfecf7298b","name":"10.00800","uid":"0c90067a-5ab3-4a52-b1da-366be7480e1a","codespace":"urn:uuid:","entity_layer":null,"type":"feature","starred":false},{"id":"cdcbdc71-eaab-4422-9033-85c11eb52333","name":"10.00800","uid":"feb76ad5-466c-4b78-b9e8-82faa61ee2da","codespace":"urn:uuid:","entity_layer":null,"type":"feature","starred":false},{"id":"bc22e15b-d719-4b10-9abb-a1bafa4386fe","name":"10.00800","uid":"8ec02c97-d900-4fa7-b175-090f914395f5","codespace":"urn:uuid:","entity_layer":null,"type":"feature","starred":false},{"id":"a06be037-42d3-4e06-a3e2-79a26511eec2","name":"10.00800","uid":"cb0a4c60-dbd9-4a95-b75c-e1d20bd4ccf4","codespace":"urn:uuid:","entity_layer":null,"type":"feature","starred":false},{"id":"94b562d9-03c2-4cfe-b57b-958d52c7e6b7","name":"10.00800","uid":"07538c7d-a8a1-4d7b-8ad0-47181f106b12","codespace":"urn:uuid:","entity_layer":null,"type":"feature","starred":false},{"id":"591586be-7c8c-4180-aba0-349b5a2974ba","name":"10.00800","uid":"4c0165fe-08bd-4caf-b24f-1d14cec2e68c","codespace":"urn:uuid:","entity_layer":null,"type":"feature","starred":false},{"id":"4a9a26a8-5ae5-4c2b-bedb-8fc1d2ca81cd","name":"10.00800","uid":"1f14fff6-04a9-494c-b790-0375723269f8","codespace":"urn:uuid:","entity_layer":null,"type":"feature","starred":false},{"id":"36d922fc-e1fc-49db-b297-b5661cdd8a39","name":"10.00800","uid":"62083909-54b1-4b1c-8f41-e220545ba9ab","codespace":"urn:uuid:","entity_layer":null,"type":"feature","starred":false},{"id":"b1be8af1-0fcd-4243-be9e-d64462647bab","name":"10.00900","uid":"6d2bf36a-396e-46c3-a8fb-e64d4b67aaac","codespace":"urn:uuid:","entity_layer":null,"type":"feature","starred":false},{"id":"626d5811-d571-4dee-95af-e35a633b9f3b","name":"10.00900","uid":"22c8509f-b7c4-4c87-a44f-e652a4067e8b","codespace":"urn:uuid:","entity_layer":null,"type":"feature","starred":false},{"id":"28410852-18e3-4b70-8f7a-54e16d0bc917","name":"10.00900","uid":"eece6eeb-91c7-4cf6-8270-f8dd68b13750","codespace":"urn:uuid:","entity_layer":null,"type":"feature","starred":false},{"id":"224db1db-1929-41c2-af85-b77cbf70fd4d","name":"10.00900","uid":"61a53604-5548-4e4f-90a9-a5b39386a9ff","codespace":"urn:uuid:","entity_layer":null,"type":"feature","starred":false},{"id":"cb65b3b1-b5c4-4231-b886-5a628a58e7d7","name":"10.01400","uid":"7cec947f-643f-4648-9317-724f80894d19","codespace":"urn:uuid:","entity_layer":null,"type":"feature","starred":false},{"id":"b051525c-285e-4b38-bac4-2babbebb71f5","name":"10.01400","uid":"d07ba4fd-89da-421a-868b-9e3b1bfa0eb1","codespace":"urn:uuid:","entity_layer":null,"type":"feature","starred":false},{"id":"9ae95aa0-ce89-423a-b7aa-27202a2c5502","name":"10.01400","uid":"ffd70c03-d705-4bdb-8ec0-980f642ba97c","codespace":"urn:uuid:","entity_layer":null,"type":"feature","starred":false},{"id":"690b0e4f-428a-4d46-bb60-77d04de85bce","name":"10.01400","uid":"a6852ce0-a761-4732-853c-ee858a2e0438","codespace":"urn:uuid:","entity_layer":null,"type":"feature","starred":false},{"id":"3343edab-e29e-4e8c-bbcd-0e88a488d3ab","name":"10.01400","uid":"9736693a-ab9e-4e79-88a1-e60452c4736b","codespace":"urn:uuid:","entity_layer":null,"type":"feature","starred":false},{"id":"d08303c3-7299-4c22-9120-4df59e7fa704","name":"10.02000","uid":"47e2709a-48c3-4a29-9a22-61ecf7cdfcd6","codespace":"urn:uuid:","entity_layer":null,"type":"feature","starred":false},{"id":"5d6960aa-5de3-4310-a6db-4310343e04cb","name":"10.02000","uid":"2a319c08-4fbb-4a99-9298-bb5669ad4655","codespace":"urn:uuid:","entity_layer":null,"type":"feature","starred":false},{"id":"fcecd6ab-424a-44db-8ca0-9f498518f2ad","name":"10.02300","uid":"2814f102-5337-4cdc-bdaa-5e2c4e5a7ff0","codespace":"urn:uuid:","entity_layer":null,"type":"feature","starred":false},{"id":"f10efed1-d67b-429f-9adc-203a070c8ac5","name":"10.02300","uid":"0a966da9-3d1e-43e5-96a0-b201ab62a4d9","codespace":"urn:uuid:","entity_layer":null,"type":"feature","starred":false},{"id":"e13ad4e5-9ea9-4c4b-8e9f-13961eb7034b","name":"10.02300","uid":"8db6da99-c03b-4da6-8c52-7c7ecd2d1c34","codespace":"urn:uuid:","entity_layer":null,"type":"feature","starred":false},{"id":"e10f598d-e9e6-4dcf-80b7-8853c7d05684","name":"10.02300","uid":"770f3c8b-7b8d-4be0-a0fd-9902678d0df9","codespace":"urn:uuid:","entity_layer":null,"type":"feature","starred":false},{"id":"dbfdb667-6951-4289-99bb-d99624576f6a","name":"10.02300","uid":"915b4177-3725-4a3b-871b-6206edeedf1b","codespace":"urn:uuid:","entity_layer":null,"type":"feature","starred":false},{"id":"cc070c19-ded6-446a-a4df-af18b644df32","name":"10.02300","uid":"afe483c4-5fcc-4df1-b2e3-0882acd59df5","codespace":"urn:uuid:","entity_layer":null,"type":"feature","starred":false},{"id":"beb95f1e-2591-4691-9dfe-a0317cdaafc7","name":"10.02300","uid":"646b8747-e1d1-4bea-81b4-0b153dcca033","codespace":"urn:uuid:","entity_layer":null,"type":"feature","starred":false},{"id":"bcb9d398-c931-4a34-a9ba-704b61ded54f","name":"10.02300","uid":"40f708cc-b7ef-4a9e-87ac-93d22dfe3c41","codespace":"urn:uuid:","entity_layer":null,"type":"feature","starred":false},{"id":"8e9cf879-45e2-44b0-804d-816a5f6cd804","name":"10.02300","uid":"5112b479-e297-489b-8619-58ac3d6d412c","codespace":"urn:uuid:","entity_layer":null,"type":"feature","starred":false},{"id":"80eae57f-235c-4923-97dc-5243a772e0f8","name":"10.02300","uid":"41c23a05-dca5-43aa-9924-db69fd346b8a","codespace":"urn:uuid:","entity_layer":null,"type":"feature","starred":false},{"id":"686e5a5e-3aca-4d52-81ff-35268ca948c8","name":"10.02300","uid":"822aae51-b9e9-4ed8-b30d-95613bd2cb2e","codespace":"urn:uuid:","entity_layer":null,"type":"feature","starred":false},{"id":"6060cffe-712f-41fb-ae2b-f6310e357f57","name":"10.02300","uid":"78a4d549-af20-4fcd-82a6-3cae16278d88","codespace":"urn:uuid:","entity_layer":null,"type":"feature","starred":false},{"id":"5f5be975-d2b3-4e3d-b5fc-9dee17f71a74","name":"10.02300","uid":"65af17a5-f69a-4da1-a43e-f2e3e2b18333","codespace":"urn:uuid:","entity_layer":null,"type":"feature","starred":false},{"id":"505ae7da-f765-4a5b-9ede-4e7698c17fad","name":"10.02300","uid":"a49fce2e-4bf1-4acf-b335-049867a2f184","codespace":"urn:uuid:","entity_layer":null,"type":"feature","starred":false},{"id":"49bf85fe-52f4-4fa8-97c1-4d2089b47746","name":"10.02300","uid":"18226caa-786a-4fb0-b639-775e03713b28","codespace":"urn:uuid:","entity_layer":null,"type":"feature","starred":false},{"id":"38458da5-ae95-4bba-b745-752027066c24","name":"10.02300","uid":"316f417a-123c-471e-8a18-5c150c8d38ed","codespace":"urn:uuid:","entity_layer":null,"type":"feature","starred":false},{"id":"16fb0eb1-a4ce-458b-bf88-b1256bbb5a53","name":"10.02300","uid":"6b9386f0-a98e-4f59-861b-4d7ebfa0cadd","codespace":"urn:uuid:","entity_layer":null,"type":"feature","starred":false},{"id":"ca6e28a5-f04c-43e0-a6f7-60f0a283e5be","name":"10.02900","uid":"cfe9e200-790f-428f-8ce8-a4c95adbec20","codespace":"urn:uuid:","entity_layer":null,"type":"feature","starred":false},{"id":"c9769255-8fb5-49a6-aa48-a1fc021cf3be","name":"10.02900","uid":"56e512fb-47c8-40f9-9d6a-d8c2e4e321a6","codespace":"urn:uuid:","entity_layer":null,"type":"feature","starred":false},{"id":"f8295f7a-5f45-4a27-92f0-03e6cd3c1317","name":"100.47000 MAG","uid":"69c1a3f2-f623-4087-821a-8282be04558f","codespace":"urn:uuid:","entity_layer":null,"type":"feature","starred":false},{"id":"f7bc5171-e911-40b3-9290-f594408c8356","name":"100.47000 MAG","uid":"77ef447c-0b0d-4e59-b196-70e051cf0962","codespace":"urn:uuid:","entity_layer":null,"type":"feature","starred":false},{"id":"dd5f253b-9e0b-42ec-963c-fc4243fc7c5d","name":"100.47000 MAG","uid":"3d428d57-638c-4948-a1aa-9650370ccde8","codespace":"urn:uuid:","entity_layer":null,"type":"feature","starred":false},{"id":"c5571f44-c756-424c-b7ff-f20c3a617b86","name":"100.47000 MAG","uid":"de98cd71-2089-4942-b061-df0187933242","codespace":"urn:uuid:","entity_layer":null,"type":"feature","starred":false},{"id":"adf86d67-9359-467b-920c-e93c80f62171","name":"100.47000 MAG","uid":"9380557c-b3a1-4c57-8d26-aa002d3f1129","codespace":"urn:uuid:","entity_layer":null,"type":"feature","starred":false},{"id":"aabdea9e-2b79-45b5-95f3-b06d3f0b69ef","name":"100.47000 MAG","uid":"78320755-830f-41a8-85ef-47674d859c73","codespace":"urn:uuid:","entity_layer":null,"type":"feature","starred":false},{"id":"a6b1542d-5651-480a-85cd-a132a7e5f541","name":"100.47000 MAG","uid":"2755858e-b987-45f9-bb5d-1dd7e6f0b036","codespace":"urn:uuid:","entity_layer":null,"type":"feature","starred":false},{"id":"a5be56cc-cadc-410d-9a28-2831a3e644cc","name":"100.47000 MAG","uid":"3d392b6d-5e6f-4185-b0fb-2b1250643778","codespace":"urn:uuid:","entity_layer":null,"type":"feature","starred":false},{"id":"89de17f4-d5a6-415b-bbe9-b98a36ad3ec6","name":"100.47000 MAG","uid":"33e0abb4-4a7f-4729-8167-a968edae8e80","codespace":"urn:uuid:","entity_layer":null,"type":"feature","starred":false},{"id":"819997ce-a8f8-4ebc-8cfd-a88c7dfb26ee","name":"100.47000 MAG","uid":"a7d1137f-2b3c-4c22-b89c-95e6bc0f739b","codespace":"urn:uuid:","entity_layer":null,"type":"feature","starred":false},{"id":"5cd2d6ad-50f4-4468-b85f-5eac6ba0ce49","name":"100.47000 MAG","uid":"0b540d5f-7dec-4422-be66-f012a100c01e","codespace":"urn:uuid:","entity_layer":null,"type":"feature","starred":false}]}